%YAML 1.1
%TAG !u! tag:unity3d.com,2011:
--- !u!1001 &4787576835304900135
PrefabInstance:
  m_ObjectHideFlags: 0
  serializedVersion: 2
  m_Modification:
    m_TransformParent: {fileID: 0}
    m_Modifications:
    - target: {fileID: 8162780214551408333, guid: 21a98dfe0d0921f4284fb2d6d8caefd9, type: 3}
      propertyPath: m_RootOrder
      value: 0
      objectReference: {fileID: 0}
    - target: {fileID: 8162780214551408333, guid: 21a98dfe0d0921f4284fb2d6d8caefd9, type: 3}
      propertyPath: m_LocalPosition.x
      value: 0
      objectReference: {fileID: 0}
    - target: {fileID: 8162780214551408333, guid: 21a98dfe0d0921f4284fb2d6d8caefd9, type: 3}
      propertyPath: m_LocalPosition.y
      value: 0
      objectReference: {fileID: 0}
    - target: {fileID: 8162780214551408333, guid: 21a98dfe0d0921f4284fb2d6d8caefd9, type: 3}
      propertyPath: m_LocalPosition.z
      value: 0
      objectReference: {fileID: 0}
    - target: {fileID: 8162780214551408333, guid: 21a98dfe0d0921f4284fb2d6d8caefd9, type: 3}
      propertyPath: m_LocalRotation.w
      value: 0.7071068
      objectReference: {fileID: 0}
    - target: {fileID: 8162780214551408333, guid: 21a98dfe0d0921f4284fb2d6d8caefd9, type: 3}
      propertyPath: m_LocalRotation.x
      value: 0.7071068
      objectReference: {fileID: 0}
    - target: {fileID: 8162780214551408333, guid: 21a98dfe0d0921f4284fb2d6d8caefd9, type: 3}
      propertyPath: m_LocalRotation.y
      value: 0
      objectReference: {fileID: 0}
    - target: {fileID: 8162780214551408333, guid: 21a98dfe0d0921f4284fb2d6d8caefd9, type: 3}
      propertyPath: m_LocalRotation.z
      value: 0
      objectReference: {fileID: 0}
    - target: {fileID: 8162780214551408333, guid: 21a98dfe0d0921f4284fb2d6d8caefd9, type: 3}
      propertyPath: m_LocalEulerAnglesHint.x
      value: 90
      objectReference: {fileID: 0}
    - target: {fileID: 8162780214551408333, guid: 21a98dfe0d0921f4284fb2d6d8caefd9, type: 3}
      propertyPath: m_LocalEulerAnglesHint.y
      value: 0
      objectReference: {fileID: 0}
    - target: {fileID: 8162780214551408333, guid: 21a98dfe0d0921f4284fb2d6d8caefd9, type: 3}
      propertyPath: m_LocalEulerAnglesHint.z
      value: 0
      objectReference: {fileID: 0}
    - target: {fileID: 8162780214551408335, guid: 21a98dfe0d0921f4284fb2d6d8caefd9, type: 3}
      propertyPath: m_Materials.Array.data[0]
      value: 
      objectReference: {fileID: 2100000, guid: a63e65b18f4ae46439633640779a594d, type: 2}
    - target: {fileID: 8162780214551408369, guid: 21a98dfe0d0921f4284fb2d6d8caefd9, type: 3}
      propertyPath: m_Name
      value: Target Variant invs
      objectReference: {fileID: 0}
    m_RemovedComponents: []
  m_SourcePrefab: {fileID: 100100000, guid: 21a98dfe0d0921f4284fb2d6d8caefd9, type: 3}
