%YAML 1.1
%TAG !u! tag:unity3d.com,2011:
--- !u!1001 &547449516139596669
PrefabInstance:
  m_ObjectHideFlags: 0
  serializedVersion: 2
  m_Modification:
    m_TransformParent: {fileID: 0}
    m_Modifications:
    - target: {fileID: -5166379234385501810, guid: 21a98dfe0d0921f4284fb2d6d8caefd9, type: 3}
      propertyPath: myScale
      value: 0
      objectReference: {fileID: 0}
    - target: {fileID: -4070111685054448612, guid: 21a98dfe0d0921f4284fb2d6d8caefd9, type: 3}
      propertyPath: m_Enabled
      value: 0
      objectReference: {fileID: 0}
    - target: {fileID: 8162780214551408333, guid: 21a98dfe0d0921f4284fb2d6d8caefd9, type: 3}
      propertyPath: m_RootOrder
      value: 0
      objectReference: {fileID: 0}
    - target: {fileID: 8162780214551408333, guid: 21a98dfe0d0921f4284fb2d6d8caefd9, type: 3}
      propertyPath: m_LocalScale.x
      value: 0.88794774
      objectReference: {fileID: 0}
    - target: {fileID: 8162780214551408333, guid: 21a98dfe0d0921f4284fb2d6d8caefd9, type: 3}
      propertyPath: m_LocalScale.y
      value: 0.017758954
      objectReference: {fileID: 0}
    - target: {fileID: 8162780214551408333, guid: 21a98dfe0d0921f4284fb2d6d8caefd9, type: 3}
      propertyPath: m_LocalScale.z
      value: 0.88794774
      objectReference: {fileID: 0}
    - target: {fileID: 8162780214551408333, guid: 21a98dfe0d0921f4284fb2d6d8caefd9, type: 3}
      propertyPath: m_LocalPosition.x
      value: 0
      objectReference: {fileID: 0}
    - target: {fileID: 8162780214551408333, guid: 21a98dfe0d0921f4284fb2d6d8caefd9, type: 3}
      propertyPath: m_LocalPosition.y
      value: 0
      objectReference: {fileID: 0}
    - target: {fileID: 8162780214551408333, guid: 21a98dfe0d0921f4284fb2d6d8caefd9, type: 3}
      propertyPath: m_LocalPosition.z
      value: 0
      objectReference: {fileID: 0}
    - target: {fileID: 8162780214551408333, guid: 21a98dfe0d0921f4284fb2d6d8caefd9, type: 3}
      propertyPath: m_LocalRotation.w
      value: 1
      objectReference: {fileID: 0}
    - target: {fileID: 8162780214551408333, guid: 21a98dfe0d0921f4284fb2d6d8caefd9, type: 3}
      propertyPath: m_LocalRotation.x
      value: 0
      objectReference: {fileID: 0}
    - target: {fileID: 8162780214551408333, guid: 21a98dfe0d0921f4284fb2d6d8caefd9, type: 3}
      propertyPath: m_LocalRotation.y
      value: 0
      objectReference: {fileID: 0}
    - target: {fileID: 8162780214551408333, guid: 21a98dfe0d0921f4284fb2d6d8caefd9, type: 3}
      propertyPath: m_LocalRotation.z
      value: 0
      objectReference: {fileID: 0}
    - target: {fileID: 8162780214551408333, guid: 21a98dfe0d0921f4284fb2d6d8caefd9, type: 3}
      propertyPath: m_LocalEulerAnglesHint.x
      value: 0
      objectReference: {fileID: 0}
    - target: {fileID: 8162780214551408333, guid: 21a98dfe0d0921f4284fb2d6d8caefd9, type: 3}
      propertyPath: m_LocalEulerAnglesHint.y
      value: 0
      objectReference: {fileID: 0}
    - target: {fileID: 8162780214551408333, guid: 21a98dfe0d0921f4284fb2d6d8caefd9, type: 3}
      propertyPath: m_LocalEulerAnglesHint.z
      value: 0
      objectReference: {fileID: 0}
    - target: {fileID: 8162780214551408369, guid: 21a98dfe0d0921f4284fb2d6d8caefd9, type: 3}
      propertyPath: m_Name
      value: Target Variant samll
      objectReference: {fileID: 0}
    m_RemovedComponents:
    - {fileID: 0}
    - {fileID: 0}
  m_SourcePrefab: {fileID: 100100000, guid: 21a98dfe0d0921f4284fb2d6d8caefd9, type: 3}
